<svg xmlns="http://www.w3.org/2000/svg" width="60" height="45" viewBox="0 0 60 45">
  <path d="M24.69,7Q12.83,12.88,12.83,20.79a13,13,0,0,1,8.39,4.15,11.81,11.81,0,0,1,3.28,8.25,11.75,11.75,0,0,1-3.23,8.39,10.62,10.62,0,0,1-8,3.42,12,12,0,0,1-9.31-4.44A15.75,15.75,0,0,1,0,29.77Q0,10.73,20.93,0ZM60,7Q48.22,12.88,48.23,20.79a13,13,0,0,1,8.3,4.15,11.86,11.86,0,0,1,3.28,8.25,11.8,11.8,0,0,1-3.19,8.39,10.47,10.47,0,0,1-8,3.42,12.16,12.16,0,0,1-9.36-4.44,15.64,15.64,0,0,1-3.95-10.79q0-19,21-29.77Z" fill="#e05c11"/>
</svg>
