<svg xmlns="http://www.w3.org/2000/svg" viewBox="0 0 20 20" width="20" height="20">
	<path d="M10,15a5,5,0,1,1,5-5A5,5,0,0,1,10,15Zm0-8.51A3.47,3.47,0,1,0,13.47,10,3.48,3.48,0,0,0,10,6.53Z" transform="translate(0)" fill="#fff"/>
	<path d="M15.51,6.19a1.33,1.33,0,1,1,1.32-1.33A1.33,1.33,0,0,1,15.51,6.19Zm0-1.35s0,0,0,0,0,0,0,0A0,0,0,0,0,15.51,4.84Z" transform="translate(0)" fill="#fff"/>
	<path d="M14.94,20H5.06A5.07,5.07,0,0,1,0,14.94V5.06A5.07,5.07,0,0,1,5.06,0h9.88A5.07,5.07,0,0,1,20,5.06v9.88A5.07,5.07,0,0,1,14.94,20ZM5.06,1.57A3.5,3.5,0,0,0,1.57,5.06v9.88a3.5,3.5,0,0,0,3.49,3.49h9.88a3.5,3.5,0,0,0,3.49-3.49V5.06a3.5,3.5,0,0,0-3.49-3.49Z" transform="translate(0)" fill="#fff"/>
</svg>
