<svg xmlns="http://www.w3.org/2000/svg" width="40" height="40" viewBox="0 0 40 40">
  <path d="M1.69,33.08H5.23a1.69,1.69,0,0,1,1.69,1.69v3.54A1.69,1.69,0,0,1,5.23,40H1.69A1.69,1.69,0,0,1,0,38.31V34.77A1.69,1.69,0,0,1,1.69,33.08Z" transform="translate(0 0)"/>
  <path d="M13.5,33.08a1.69,1.69,0,0,1,1.69,1.69v3.54A1.69,1.69,0,0,1,13.5,40H10a1.69,1.69,0,0,1-1.69-1.69V34.77A1.69,1.69,0,0,1,10,33.08Zm0,.68H10a1,1,0,0,0-1,1v3.54a1,1,0,0,0,1,1H13.5a1,1,0,0,0,1-1V34.77A1,1,0,0,0,13.5,33.76Z" transform="translate(0 0)"/>
  <path d="M21.77,33.08a1.69,1.69,0,0,1,1.69,1.69v3.54A1.69,1.69,0,0,1,21.77,40H18.23a1.69,1.69,0,0,1-1.69-1.69V34.77a1.69,1.69,0,0,1,1.69-1.69Zm0,.68H18.23a1,1,0,0,0-1,1v3.54a1,1,0,0,0,1,1h3.54a1,1,0,0,0,1-1V34.77A1,1,0,0,0,21.77,33.76Z" transform="translate(0 0)"/>
  <path d="M30,33.08a1.69,1.69,0,0,1,1.69,1.69v3.54A1.69,1.69,0,0,1,30,40H26.5a1.69,1.69,0,0,1-1.69-1.69V34.77a1.69,1.69,0,0,1,1.69-1.69Zm0,.68H26.5a1,1,0,0,0-1,1v3.54a1,1,0,0,0,1,1H30a1,1,0,0,0,1-1V34.77A1,1,0,0,0,30,33.76Z" transform="translate(0 0)"/>
  <path d="M38.31,33.08A1.69,1.69,0,0,1,40,34.77v3.54A1.69,1.69,0,0,1,38.31,40H34.77a1.69,1.69,0,0,1-1.69-1.69V34.77a1.69,1.69,0,0,1,1.69-1.69Zm0,.68H34.77a1,1,0,0,0-1,1v3.54a1,1,0,0,0,1,1h3.54a1,1,0,0,0,1-1V34.77A1,1,0,0,0,38.31,33.76Z" transform="translate(0 0)"/>
  <path d="M13.5,24.81a1.69,1.69,0,0,1,1.69,1.69V30a1.69,1.69,0,0,1-1.69,1.69H10A1.69,1.69,0,0,1,8.27,30V26.5A1.69,1.69,0,0,1,10,24.81Zm0,.68H10a1,1,0,0,0-1,1V30a1,1,0,0,0,1,1H13.5a1,1,0,0,0,1-1V26.5A1,1,0,0,0,13.5,25.49Z" transform="translate(0 0)"/>
  <path d="M21.77,24.81a1.69,1.69,0,0,1,1.69,1.69V30a1.69,1.69,0,0,1-1.69,1.69H18.23A1.69,1.69,0,0,1,16.54,30V26.5a1.69,1.69,0,0,1,1.69-1.69Zm0,.68H18.23a1,1,0,0,0-1,1V30a1,1,0,0,0,1,1h3.54a1,1,0,0,0,1-1V26.5A1,1,0,0,0,21.77,25.49Z" transform="translate(0 0)"/>
  <path d="M21.77,16.54a1.69,1.69,0,0,1,1.69,1.69v3.54a1.69,1.69,0,0,1-1.69,1.69H18.23a1.69,1.69,0,0,1-1.69-1.69V18.23a1.69,1.69,0,0,1,1.69-1.69Zm0,.68H18.23a1,1,0,0,0-1,1v3.54a1,1,0,0,0,1,1h3.54a1,1,0,0,0,1-1V18.23A1,1,0,0,0,21.77,17.22Z" transform="translate(0 0)"/>
  <path d="M30,24.81a1.69,1.69,0,0,1,1.69,1.69V30A1.69,1.69,0,0,1,30,31.73H26.5A1.69,1.69,0,0,1,24.81,30V26.5a1.69,1.69,0,0,1,1.69-1.69Zm0,.68H26.5a1,1,0,0,0-1,1V30a1,1,0,0,0,1,1H30a1,1,0,0,0,1-1V26.5A1,1,0,0,0,30,25.49Z" transform="translate(0 0)"/>
  <path d="M30,16.54a1.69,1.69,0,0,1,1.69,1.69v3.54A1.69,1.69,0,0,1,30,23.46H26.5a1.69,1.69,0,0,1-1.69-1.69V18.23a1.69,1.69,0,0,1,1.69-1.69Zm0,.68H26.5a1,1,0,0,0-1,1v3.54a1,1,0,0,0,1,1H30a1,1,0,0,0,1-1V18.23A1,1,0,0,0,30,17.22Z" transform="translate(0 0)"/>
  <path d="M30,8.27A1.69,1.69,0,0,1,31.73,10V13.5A1.69,1.69,0,0,1,30,15.19H26.5a1.69,1.69,0,0,1-1.69-1.69V10A1.69,1.69,0,0,1,26.5,8.27ZM30,9H26.5a1,1,0,0,0-1,1V13.5a1,1,0,0,0,1,1H30a1,1,0,0,0,1-1V10A1,1,0,0,0,30,9Z" transform="translate(0 0)"/>
  <path d="M38.31,24.81A1.69,1.69,0,0,1,40,26.5V30a1.69,1.69,0,0,1-1.69,1.69H34.77A1.69,1.69,0,0,1,33.08,30V26.5a1.69,1.69,0,0,1,1.69-1.69Zm0,.68H34.77a1,1,0,0,0-1,1V30a1,1,0,0,0,1,1h3.54a1,1,0,0,0,1-1V26.5A1,1,0,0,0,38.31,25.49Z" transform="translate(0 0)"/>
  <path d="M38.31,16.54A1.69,1.69,0,0,1,40,18.23v3.54a1.69,1.69,0,0,1-1.69,1.69H34.77a1.69,1.69,0,0,1-1.69-1.69V18.23a1.69,1.69,0,0,1,1.69-1.69Zm0,.68H34.77a1,1,0,0,0-1,1v3.54a1,1,0,0,0,1,1h3.54a1,1,0,0,0,1-1V18.23A1,1,0,0,0,38.31,17.22Z" transform="translate(0 0)"/>
  <path d="M38.31,8.27A1.69,1.69,0,0,1,40,10V13.5a1.69,1.69,0,0,1-1.69,1.69H34.77a1.69,1.69,0,0,1-1.69-1.69V10a1.69,1.69,0,0,1,1.69-1.69Zm0,.68H34.77a1,1,0,0,0-1,1V13.5a1,1,0,0,0,1,1h3.54a1,1,0,0,0,1-1V10A1,1,0,0,0,38.31,9Z" transform="translate(0 0)"/>
  <path d="M38.31,0A1.69,1.69,0,0,1,40,1.69V5.23a1.69,1.69,0,0,1-1.69,1.69H34.77a1.69,1.69,0,0,1-1.69-1.69V1.69A1.69,1.69,0,0,1,34.77,0Zm0,.67H34.77a1,1,0,0,0-1,1V5.23a1,1,0,0,0,1,1h3.54a1,1,0,0,0,1-1V1.69A1,1,0,0,0,38.31.67Z" transform="translate(0 0)"/>
</svg>
