<svg xmlns="http://www.w3.org/2000/svg" viewBox="0 0 30 24" width="30" height="24">
	<path d="M.39,9.79,29.11,0l.08,0c.27,0,1.52-.06.25,1.88-1.41,2.17-10,17.23-10,17.23a2.28,2.28,0,0,1-3.26.88c-1.07-.65-2.14-1.31-3.25-1.89l-3.77-2a.35.35,0,0,1-.05-.6L26.32,2.61l-21,11.22a.39.39,0,0,1-.36,0L.47,11.36l-.09-.07A1,1,0,0,1,.24,9.89.36.36,0,0,1,.39,9.79Z" fill="#000"/>
	<path d="M7.66,17.21l4.5,2.24a.35.35,0,0,1,.08.58L7.88,23.91a.37.37,0,0,1-.62-.26l-.14-6.12A.37.37,0,0,1,7.66,17.21Z" fill="#000"/>
</svg>
