<svg id="carte-orange" xmlns="http://www.w3.org/2000/svg" width="63.37mm" height="79.11mm" viewBox="0 0 179.64 224.26">
  <g id="fenetre-question">
    <path id="deco-question" d="M138.23,47.49a1.49,1.49,0,0,0,1.23-1.7s-.38-2.3-.79-4.82c.05-.13-.84-4.66-1.34-6.88a1.28,1.28,0,0,0-1.47-1c-1.88.35-5.36,1-5.63,1L33.38,49.92a3.06,3.06,0,0,0-.9,0L21.16,51.79c-.81.13-1.42.51-1.37.84l.16,1L21.8,64.94l3.72,22.89,1.84,11.33.2,1.22c.06.33.76.5,1.56.37l11.33-1.84a2.15,2.15,0,0,0,1.28-.59l81.38-13.24,6.57-1.19a1.26,1.26,0,0,1,1.47,1c.43,2.61,2.37,14.3,3,18.13a1.24,1.24,0,0,1-1,1.42l-5.33.85L32.39,120.85a1.42,1.42,0,0,0-.84.45c-.33.17-.52.38-.49.57l.11.67L33,133.87l3.8,23.39,1.84,11.33.17,1c.06.34.76.51,1.57.37l11.32-1.84a2.9,2.9,0,0,0,1-.35l81.65-13.29,6.52-1a1.44,1.44,0,0,1,1.65,1.2c.84,5.1,2.24,13.76,2.83,17.34A1.66,1.66,0,0,1,144,174L50.24,189.21c-.15,0-4.18.54-6.38.86a1.44,1.44,0,0,0-1.2,1.62l1.65,11.61a1.49,1.49,0,0,0,1.7,1.22l102.37-16.65,12.19-2a1.8,1.8,0,0,0,1.48-2.06l-5.73-34.39-1.84-11.33-.11-.67c0-.19-.28-.33-.64-.39a1.47,1.47,0,0,0-.95-.16L58.59,152.22c-.18-.12-4.33.59-6.46.9a1.28,1.28,0,0,1-1.42-1l-3.17-18.24a1,1,0,0,1,.82-1.12l7.07-1,81.65-13.29a2.71,2.71,0,0,0,1.07,0l11.33-1.84c.81-.13,1.42-.51,1.36-.85l-.17-1-1.84-11.33L145,80l-1.85-11.33-.11-.66c0-.2-.28-.34-.64-.39a1.4,1.4,0,0,0-1-.17L46.08,83l-5.75.88a.78.78,0,0,1-.88-.63L36.11,65.1a1,1,0,0,1,.8-1.14c2-.32,6.2-1,6.52-1l94.8-15.43" transform="translate(0 -0.98)" fill="#e1e8f6"/>
    <path d="M159.34,207.77,53.89,224.93a24.2,24.2,0,0,1-27.74-20L.32,46.2a24.2,24.2,0,0,1,20-27.74L125.75,1.3a24.2,24.2,0,0,1,27.74,20L179.32,180A24.2,24.2,0,0,1,159.34,207.77ZM20.78,21.42a21.19,21.19,0,0,0-17.5,24.3L29.11,204.47A21.2,21.2,0,0,0,53.41,222l105.45-17.16a21.21,21.21,0,0,0,17.5-24.3L150.53,21.76a21.21,21.21,0,0,0-24.3-17.5Z" transform="translate(0 -0.98)" fill="#e1e8f6"/>
  </g>
</svg>
